2012-10-03 16:46:55 || LAUNCHPAD || TRANSACTION TYPE: GetAccountBalance || ICSA-TST01 || s:10:"ICSA-TST01";
2012-10-03 16:46:58 || LAUNCHPAD || TRANSACTION TYPE: GetAccountBalance || ICSA-TST01 || s:10:"ICSA-TST01";
2012-10-03 18:11:04 || LAUNCHPAD || TRANSACTION TYPE: GetAccountBalance || ICSA-TST01 || ICSA-TST01
2012-10-03 18:11:06 || LAUNCHPAD || TRANSACTION TYPE: GetAccountBalance || ICSA-TST01 || ICSA-TST01
